testbench.vcd
$date
	Sun Jan 27 23:38:43 2019
$end
$version
	Icarus Verilog
$end
$timescale
	1s
$end
$scope module testbench $end
$var wire 8 ! Result [7:0] $end
$var reg 8 " Read_Addr [7:0] $end
$var reg 1 # clk $end
$var reg 1 $ rst $end
$scope module simpleP $end
$var wire 8 % Read_Addr [7:0] $end
$var wire 1 & busy_wait $end
$var wire 1 # clk $end
$var wire 32 ' instruction [31:0] $end
$var wire 1 $ rst $end
$var wire 1 ( write $end
$var wire 32 ) read_inst [31:0] $end
$var wire 8 * read_data [7:0] $end
$var wire 1 + read $end
$var wire 8 , imValueMUXout [7:0] $end
$var wire 1 - imValueMUX $end
$var wire 1 . dmMUX $end
$var wire 8 / address [7:0] $end
$var wire 8 0 addSubMUXout [7:0] $end
$var wire 1 1 addSubMUX $end
$var wire 3 2 Select [2:0] $end
$var wire 8 3 Result [7:0] $end
$var wire 8 4 OUTPUT [7:0] $end
$var wire 3 5 OUT2addr [2:0] $end
$var wire 8 6 OUT2 [7:0] $end
$var wire 3 7 OUT1addr [2:0] $end
$var wire 8 8 OUT1 [7:0] $end
$var wire 8 9 Imm [7:0] $end
$var wire 3 : INaddr [2:0] $end
$var wire 128 ; IMread_data [127:0] $end
$var wire 1 < IMread $end
$var wire 1 = IMbusy_wait $end
$var wire 6 > IMaddress [5:0] $end
$var wire 8 ? DataMemMUXout [7:0] $end
$var wire 16 @ DMwrite_data [15:0] $end
$var wire 1 A DMwrite $end
$var wire 16 B DMread_data [15:0] $end
$var wire 1 C DMread $end
$var wire 1 D DMbusy_wait $end
$var wire 7 E DMaddress [6:0] $end
$scope module DataMemMUX $end
$var wire 8 F INPUT2 [7:0] $end
$var wire 8 G INPUT1 [7:0] $end
$var wire 1 . CTRL $end
$var reg 8 H OUTPUT [7:0] $end
$upscope $end
$scope module addsubMUX $end
$var wire 8 I INPUT2 [7:0] $end
$var wire 8 J INPUT1 [7:0] $end
$var wire 1 1 CTRL $end
$var reg 8 K OUTPUT [7:0] $end
$upscope $end
$scope module alu1 $end
$var wire 8 L RESULT [7:0] $end
$var wire 3 M SELECT [2:0] $end
$var wire 8 N DATA2 [7:0] $end
$var wire 8 O DATA1 [7:0] $end
$var reg 8 P Res [7:0] $end
$upscope $end
$scope module cm $end
$var wire 1 & busy_wait $end
$var wire 1 # clk $end
$var wire 1 Q hit $end
$var wire 1 $ rst $end
$var wire 8 R write_data [7:0] $end
$var wire 1 ( write $end
$var wire 4 S tag [3:0] $end
$var wire 1 + read $end
$var wire 1 T offset $end
$var wire 3 U index [2:0] $end
$var wire 1 V cout $end
$var wire 8 W address [7:0] $end
$var wire 16 X DMread_data [15:0] $end
$var wire 1 D DMbusy_wait $end
$var reg 7 Y DMaddress [6:0] $end
$var reg 1 C DMread $end
$var reg 1 A DMwrite $end
$var reg 16 Z DMwrite_data [15:0] $end
$var reg 1 [ flag $end
$var reg 8 \ read_data [7:0] $end
$var integer 32 ] i [31:0] $end
$scope module cm1 $end
$var wire 4 ^ Input1 [3:0] $end
$var wire 4 _ Input2 [3:0] $end
$var wire 1 V Out $end
$var wire 1 ` out1 $end
$var wire 1 a out2 $end
$var wire 1 b out3 $end
$var wire 1 c out4 $end
$upscope $end
$upscope $end
$scope module cm1 $end
$var wire 8 d address [7:0] $end
$var wire 1 & busy_wait $end
$var wire 1 # clk $end
$var wire 1 e hit $end
$var wire 1 $ rst $end
$var wire 4 f tag [3:0] $end
$var wire 1 + read $end
$var wire 2 g offset [1:0] $end
$var wire 2 h index [1:0] $end
$var wire 1 i cout $end
$var wire 128 j IMread_data [127:0] $end
$var wire 1 = IMbusy_wait $end
$var reg 6 k IMaddress [5:0] $end
$var reg 1 < IMread $end
$var reg 1 l flag $end
$var reg 32 m read_data [31:0] $end
$var integer 32 n i [31:0] $end
$scope module cm1 $end
$var wire 4 o Input1 [3:0] $end
$var wire 4 p Input2 [3:0] $end
$var wire 1 i Out $end
$var wire 1 q out1 $end
$var wire 1 r out2 $end
$var wire 1 s out3 $end
$var wire 1 t out4 $end
$upscope $end
$upscope $end
$scope module cu1 $end
$var wire 1 & busy_wait $end
$var wire 32 u instruction [31:0] $end
$var reg 3 v INaddr [2:0] $end
$var reg 8 w Imm [7:0] $end
$var reg 3 x OUT1addr [2:0] $end
$var reg 3 y OUT2addr [2:0] $end
$var reg 3 z Select [2:0] $end
$var reg 1 1 addSubMUX $end
$var reg 8 { address [7:0] $end
$var reg 1 . dmMUX $end
$var reg 1 - imValueMUX $end
$var reg 1 + read $end
$var reg 1 ( write $end
$upscope $end
$scope module dm $end
$var wire 7 | address [6:0] $end
$var wire 1 # clk $end
$var wire 1 C read $end
$var wire 1 $ rst $end
$var wire 1 A write $end
$var wire 16 } write_data [15:0] $end
$var reg 1 D busy_wait $end
$var reg 16 ~ read_data [15:0] $end
$var integer 32 !" i [31:0] $end
$upscope $end
$scope module im1 $end
$var wire 6 "" Read_Addr [5:0] $end
$var wire 1 # clk $end
$var wire 1 < read $end
$var wire 1 $ reset $end
$var reg 1 = IMbusy_wait $end
$var reg 128 #" instruction [127:0] $end
$upscope $end
$scope module immValMUX $end
$var wire 1 - CTRL $end
$var wire 8 $" INPUT1 [7:0] $end
$var wire 8 %" INPUT2 [7:0] $end
$var reg 8 &" OUTPUT [7:0] $end
$upscope $end
$scope module ir1 $end
$var wire 8 '" Read_Addr [7:0] $end
$var wire 1 # clk $end
$var wire 32 (" instruction [31:0] $end
$var wire 1 $ reset $end
$upscope $end
$scope module rf1 $end
$var wire 8 )" IN [7:0] $end
$var wire 3 *" INaddr [2:0] $end
$var wire 3 +" OUT1addr [2:0] $end
$var wire 8 ," OUT2 [7:0] $end
$var wire 3 -" OUT2addr [2:0] $end
$var wire 1 & busy_wait $end
$var wire 1 # clk $end
$var wire 8 ." OUT1 [7:0] $end
$var reg 8 /" OUT1reg [7:0] $end
$var reg 8 0" OUT2reg [7:0] $end
$var reg 64 1" regMemory [63:0] $end
$var integer 32 2" i [31:0] $end
$upscope $end
$scope module tcomp $end
$var wire 8 3" INPUT [7:0] $end
$var wire 8 4" OUTPUT [7:0] $end
$upscope $end
$upscope $end
$upscope $end
$enddefinitions $end
#0
$dumpvars
bx 4"
bx 3"
bx 2"
b0 1"
bx 0"
bx /"
bx ."
bx -"
bx ,"
bx +"
bx *"
bx )"
bz ("
bx '"
bx &"
bx %"
bx $"
bx #"
bx ""
bx !"
bx ~
bx }
bx |
bx {
bx z
bx y
bx x
bx w
bx v
bx u
xt
xs
xr
xq
bx p
bx o
bx n
bx m
0l
bx k
bx j
xi
bx h
bx g
bx f
xe
bx d
xc
xb
xa
x`
bx _
bx ^
bx ]
bx \
0[
bx Z
bx Y
bx X
bx W
xV
bx U
xT
bx S
bx R
xQ
bx P
bx O
bx N
bx M
bx L
bx K
bx J
bx I
bx H
bx G
bx F
bx E
0D
xC
bx B
xA
bx @
bx ?
bx >
x=
x<
bx ;
bx :
bx 9
bx 8
bx 7
bx 6
bx 5
bx 4
bx 3
bx 2
x1
bx 0
bx /
x.
x-
bx ,
x+
bx *
bx )
x(
bz '
x&
bx %
0$
0#
bx "
bx !
$end
#10
b1000 2"
1#
#20
b10000 n
b10000 ]
b10000000 !"
0#
1$
#30
b1000 2"
1#
#40
0#
0$
#50
b1000 2"
1#
#60
0e
b0 g
b0 h
b0 f
b0 o
0#
b0 "
b0 %
b0 d
b0 '"
#70
b1000 2"
1#
#80
0#
#90
b1000 2"
1#
#100
1=
1i
1q
1r
1s
1t
1e
1l
b0 p
1<
b0 >
b0 k
b0 ""
0#
#110
b1000 2"
1#
#120
0#
#130
b1000 2"
1#
#140
0#
#150
b1000 2"
1#
#160
0#
#170
b1000 2"
1#
#180
0#
#190
b1000 2"
1#
#200
0#
#210
b1000 2"
1#
#220
0#
#230
b1000 2"
1#
#240
0#
#250
b1000 2"
1#
#260
0#
#270
b1000 2"
1#
#280
0#
#290
b1000 2"
1#
#300
0#
#310
b1000 2"
1#
#320
0#
#330
b1000 2"
1#
#340
0#
#350
b1000 2"
1#
#360
0#
#370
b1000 2"
1#
#380
0#
#390
b1000 2"
1#
#400
0#
#410
b1000 2"
1#
#420
0#
#430
b1000 2"
1#
#440
0#
#450
b1000 2"
1#
#460
0#
#470
b1000 2"
1#
#480
0#
#490
b1000 2"
1#
#500
0#
#510
b1000 2"
1#
#520
0#
#530
b1000 2"
1#
#540
0#
#550
b1000 2"
1#
#560
0#
#570
b1000 2"
1#
#580
0#
#590
b1000 2"
1#
#600
0#
#610
b1000 2"
1#
#620
0#
#630
b1000 2"
1#
#640
0#
#650
b1000 2"
1#
#660
0#
#670
b1000 2"
1#
#680
0#
#690
b1000 2"
1#
#700
0#
#710
b1000 2"
1#
#720
0#
#730
b1000 2"
1#
#740
0#
#750
b1000 2"
1#
#760
0#
#770
b1000 2"
1#
#780
0#
#790
b1000 2"
1#
#800
0#
#810
b1000 2"
1#
#820
0#
#830
b1000 2"
1#
#840
0#
#850
b1000 2"
1#
#860
0#
#870
b1000 2"
1#
#880
0#
#890
b1000 2"
1#
#900
0#
#910
b1000 2"
1#
#920
0#
#930
b1000 2"
1#
#940
0#
#950
b1000 2"
1#
#960
0#
#970
b1000 2"
1#
#980
0#
#990
b1000 2"
1#
#1000
0#
#1010
b1000 2"
1#
#1020
0#
#1030
b1000 2"
1#
#1040
0#
#1050
b1000 2"
1#
#1060
0#
#1070
b1000 2"
1#
#1080
0#
#1090
b1000 2"
1#
#1100
0#
#1110
b1000 2"
1#
#1120
0#
#1130
b1000 2"
1#
#1140
0#
#1150
b1000 2"
1#
#1160
0#
#1170
b1000 2"
1#
#1180
0#
#1190
b1000 2"
1#
#1200
0#
#1210
b1000 2"
1#
#1220
0#
#1230
b1000 2"
1#
#1240
0#
#1250
b1000 2"
1#
#1260
0#
#1270
b1000 2"
1#
#1280
0#
#1290
b1000 2"
1#
#1300
0#
#1310
b1000 2"
1#
#1320
0#
#1330
b1000 2"
1#
#1340
0#
#1350
b1000 2"
1#
#1360
0#
#1370
b1000 2"
1#
#1380
0#
#1390
b1000 2"
1#
#1400
0#
#1410
b1000 2"
1#
#1420
0#
#1430
b1000 2"
1#
#1440
0#
#1450
b1000 2"
1#
#1460
0#
#1470
b1000 2"
1#
#1480
0#
#1490
b1000 2"
1#
#1500
0#
#1510
b1000 2"
1#
#1520
0#
#1530
b1000 2"
1#
#1540
0#
#1550
b1000 2"
1#
#1560
0#
#1570
b1000 2"
1#
#1580
0#
#1590
b1000 2"
1#
#1600
0#
#1610
b1000 2"
1#
#1620
0#
#1630
b1000 2"
1#
#1640
0#
#1650
b1000 2"
1#
#1660
0#
#1670
b1000 2"
1#
#1680
0#
#1690
b1000 2"
1#
#1700
0#
#1710
b1000 2"
1#
#1720
0#
#1730
b1000 2"
1#
#1740
0#
#1750
b1000 2"
1#
#1760
0#
#1770
b1000 2"
1#
#1780
0#
#1790
b1000 2"
1#
#1800
0#
#1810
b1000 2"
1#
#1820
0#
#1830
b1000 2"
1#
#1840
0#
#1850
b1000 2"
1#
#1860
0#
#1870
b1000 2"
1#
#1880
0#
#1890
b1000 2"
1#
#1900
0#
#1910
b1000 2"
1#
#1920
0#
#1930
b1000 2"
1#
#1940
0#
#1950
b1000 2"
1#
#1960
0#
#1970
b1000 2"
1#
#1980
0#
#1990
b1000 2"
1#
#2000
0#
#2010
b1000 2"
1#
#2020
0#
#2030
b1000 2"
1#
#2040
0#
#2050
b1000 2"
1#
#2060
0&
0=
b101001110000000000000000011000001010011100100000000000000100000000000000011000000000000001100000000000000100000000000011101 ;
b101001110000000000000000011000001010011100100000000000000100000000000000011000000000000001100000000000000100000000000011101 j
b101001110000000000000000011000001010011100100000000000000100000000000000011000000000000001100000000000000100000000000011101 #"
0#
#2070
b1000 2"
1#
#2080
b11101 !
b11101 ?
b11101 H
b11101 )"
b11101 3
b11101 F
b11101 L
b11101 R
b11101 P
b11101 ,
b11101 O
b11101 &"
1.
0+
0(
01
0-
b10 :
b10 v
b10 *"
b0 5
b0 y
b0 -"
b101 7
b101 x
b101 +"
b11101 9
b11101 w
b11101 $"
b0 2
b0 M
b0 z
b100000000000011101 )
b100000000000011101 m
b100000000000011101 u
0l
b1000 2"
0#
#2090
b0 0
b0 K
b0 %"
b0 4
b0 I
b0 4"
b0 6
b0 N
b0 ,"
b0 0"
b0 8
b0 J
b0 ."
b0 /"
b0 3"
b1000 2"
1#
#2100
b11 !
b11 ?
b11 H
b11 )"
b11 3
b11 F
b11 L
b11 R
b11 P
b11 ,
b11 O
b11 &"
0-
b11 :
b11 v
b11 *"
b11 7
b11 x
b11 +"
b11 9
b11 w
b11 $"
b111010000000000000000 1"
b1000 2"
b110000000000000011 )
b110000000000000011 m
b110000000000000011 u
b1 g
0#
b1 "
b1 %
b1 d
b1 '"
#2110
b1000 2"
1#
#2120
b0 !
b0 ?
b0 H
b0 )"
b0 3
b0 F
b0 L
b0 R
b0 P
b0 ,
b0 O
b0 &"
0Q
b11 S
b11 ^
b100 U
1T
b111001 /
b111001 W
b111001 {
1(
1-
b1 :
b1 v
b1 *"
b10 7
b10 x
b10 +"
b10 9
b10 w
b10 $"
b101 2
b101 M
b101 z
b101001110010000000000000010 )
b101001110010000000000000010 m
b101001110010000000000000010 u
b11000111010000000000000000 1"
b1000 2"
b10 g
0#
b10 "
b10 %
b10 d
b10 '"
#2130
b11101 !
b11101 ?
b11101 H
b11101 )"
b11101 3
b11101 F
b11101 L
b11101 R
b11101 P
b11101 ,
b11101 O
b11101 &"
b11101 0
b11101 K
b11101 %"
b11100011 4
b11100011 I
b11100011 4"
b11101 8
b11101 J
b11101 ."
b11101 /"
b11101 3"
b1000 2"
1#
#2140
b11000111010001110100000000 1"
b1000 2"
0#
#2150
b1000 2"
1#
#2160
x&
1D
1V
1`
1a
1b
1c
1Q
b1000 2"
1[
b11 _
0A
1C
b11100 E
b11100 Y
b11100 |
0#
#2170
b1000 2"
1#
#2180
0#
#2190
b1000 2"
1#
#2200
0#
#2210
b1000 2"
1#
#2220
0#
#2230
b1000 2"
1#
#2240
0#
#2250
b1000 2"
1#
#2260
0#
#2270
b1000 2"
1#
#2280
0#
#2290
b1000 2"
1#
#2300
0#
#2310
b1000 2"
1#
#2320
0#
#2330
b1000 2"
1#
#2340
0#
#2350
b1000 2"
1#
#2360
0#
#2370
b1000 2"
1#
#2380
0#
#2390
b1000 2"
1#
#2400
0#
#2410
b1000 2"
1#
#2420
0#
#2430
b1000 2"
1#
#2440
0#
#2450
b1000 2"
1#
#2460
0#
#2470
b1000 2"
1#
#2480
0#
#2490
b1000 2"
1#
#2500
0#
#2510
b1000 2"
1#
#2520
0#
#2530
b1000 2"
1#
#2540
0#
#2550
b1000 2"
1#
#2560
0#
#2570
b1000 2"
1#
#2580
0#
#2590
b1000 2"
1#
#2600
0#
#2610
b1000 2"
1#
#2620
0#
#2630
b1000 2"
1#
#2640
0#
#2650
b1000 2"
1#
#2660
0#
#2670
b1000 2"
1#
#2680
0#
#2690
b1000 2"
1#
#2700
0#
#2710
b1000 2"
1#
#2720
0#
#2730
b1000 2"
1#
#2740
0#
#2750
b1000 2"
1#
#2760
0#
#2770
b1000 2"
1#
#2780
0#
#2790
b1000 2"
1#
#2800
0#
#2810
b1000 2"
1#
#2820
0#
#2830
b1000 2"
1#
#2840
0#
#2850
b1000 2"
1#
#2860
0#
#2870
b1000 2"
1#
#2880
0#
#2890
b1000 2"
1#
#2900
0#
#2910
b1000 2"
1#
#2920
0#
#2930
b1000 2"
1#
#2940
0#
#2950
b1000 2"
1#
#2960
0#
#2970
b1000 2"
1#
#2980
0#
#2990
b1000 2"
1#
#3000
0#
#3010
b1000 2"
1#
#3020
0#
#3030
b1000 2"
1#
#3040
0#
#3050
b1000 2"
1#
#3060
0#
#3070
b1000 2"
1#
#3080
0#
#3090
b1000 2"
1#
#3100
0#
#3110
b1000 2"
1#
#3120
0#
#3130
b1000 2"
1#
#3140
0#
#3150
b1000 2"
1#
#3160
0#
#3170
b1000 2"
1#
#3180
0#
#3190
b1000 2"
1#
#3200
0#
#3210
b1000 2"
1#
#3220
0#
#3230
b1000 2"
1#
#3240
0#
#3250
b1000 2"
1#
#3260
0#
#3270
b1000 2"
1#
#3280
0#
#3290
b1000 2"
1#
#3300
0#
#3310
b1000 2"
1#
#3320
0#
#3330
b1000 2"
1#
#3340
0#
#3350
b1000 2"
1#
#3360
0#
#3370
b1000 2"
1#
#3380
0#
#3390
b1000 2"
1#
#3400
0#
#3410
b1000 2"
1#
#3420
0#
#3430
b1000 2"
1#
#3440
0#
#3450
b1000 2"
1#
#3460
0#
#3470
b1000 2"
1#
#3480
0#
#3490
b1000 2"
1#
#3500
0#
#3510
b1000 2"
1#
#3520
0#
#3530
b1000 2"
1#
#3540
0#
#3550
b1000 2"
1#
#3560
0#
#3570
b1000 2"
1#
#3580
0#
#3590
b1000 2"
1#
#3600
0#
#3610
b1000 2"
1#
#3620
0#
#3630
b1000 2"
1#
#3640
0#
#3650
b1000 2"
1#
#3660
0#
#3670
b1000 2"
1#
#3680
0#
#3690
b1000 2"
1#
#3700
0#
#3710
b1000 2"
1#
#3720
0#
#3730
b1000 2"
1#
#3740
0#
#3750
b1000 2"
1#
#3760
0#
#3770
b1000 2"
1#
#3780
0#
#3790
b1000 2"
1#
#3800
0#
#3810
b1000 2"
1#
#3820
0#
#3830
b1000 2"
1#
#3840
0#
#3850
b1000 2"
1#
#3860
0#
#3870
b1000 2"
1#
#3880
0#
#3890
b1000 2"
1#
#3900
0#
#3910
b1000 2"
1#
#3920
0#
#3930
b1000 2"
1#
#3940
0#
#3950
b1000 2"
1#
#3960
0#
#3970
b1000 2"
1#
#3980
0#
#3990
b1000 2"
1#
#4000
0#
#4010
b1000 2"
1#
#4020
0#
#4030
b1000 2"
1#
#4040
0#
#4050
b1000 2"
1#
#4060
0#
#4070
b1000 2"
1#
#4080
0#
#4090
b1000 2"
1#
#4100
0#
#4110
0&
0D
b0 B
b0 X
b0 ~
b1000 2"
1#
#4120
0[
b1000 2"
0#
#4130
b1000 2"
1#
#4140
0T
b111000 /
b111000 W
b111000 {
1(
b0 :
b0 v
b0 *"
b11 7
b11 x
b11 +"
b11 9
b11 w
b11 $"
b1000 2"
b101001110000000000000000011 )
b101001110000000000000000011 m
b101001110000000000000000011 u
b11 g
0#
b11 "
b11 %
b11 d
b11 '"
#4150
b11 !
b11 ?
b11 H
b11 )"
b11 3
b11 F
b11 L
b11 R
b11 P
b11 ,
b11 O
b11 &"
b11 0
b11 K
b11 %"
b11111101 4
b11111101 I
b11111101 4"
b11 8
b11 J
b11 ."
b11 /"
b11 3"
b1000 2"
1#
#4160
b0 !
b0 ?
b0 H
b0 )"
b0 3
b0 F
b0 L
b0 R
b0 P
b0 ,
b0 O
b0 &"
xi
xq
xr
xs
xt
0-
0(
b0 7
b0 x
b0 +"
b0 9
b0 w
b0 $"
b0 2
b0 M
b0 z
0e
b0 )
b0 m
b0 u
b11000111010001110100000011 1"
b1000 2"
b0 g
bx p
b1 h
0#
b100 "
b100 %
b100 d
b100 '"
#4170
b11 6
b11 N
b11 ,"
b11 0"
b1000 2"
1#
#4180
b11000111010001110100000000 1"
b1000 2"
0#
#4190
b0 0
b0 K
b0 %"
b0 6
b0 N
b0 ,"
b0 0"
b0 4
b0 I
b0 4"
b0 8
b0 J
b0 ."
b0 /"
b0 3"
b1000 2"
1#
#4200
x&
1=
1i
1q
1r
1s
1t
1e
1l
b0 p
b1 >
b1 k
b1 ""
b1000 2"
0#
#4210
b1000 2"
1#
#4220
0#
#4230
b1000 2"
1#
#4240
0#
#4250
b1000 2"
1#
#4260
0#
#4270
b1000 2"
1#
#4280
0#
#4290
b1000 2"
1#
#4300
0#
#4310
b1000 2"
1#
#4320
0#
#4330
b1000 2"
1#
#4340
0#
#4350
b1000 2"
1#
#4360
0#
#4370
b1000 2"
1#
#4380
0#
#4390
b1000 2"
1#
#4400
0#
#4410
b1000 2"
1#
#4420
0#
#4430
b1000 2"
1#
#4440
0#
#4450
b1000 2"
1#
#4460
0#
#4470
b1000 2"
1#
#4480
0#
#4490
b1000 2"
1#
#4500
0#
#4510
b1000 2"
1#
#4520
0#
#4530
b1000 2"
1#
#4540
0#
#4550
b1000 2"
1#
#4560
0#
#4570
b1000 2"
1#
#4580
0#
#4590
b1000 2"
1#
#4600
0#
#4610
b1000 2"
1#
#4620
0#
#4630
b1000 2"
1#
#4640
0#
#4650
b1000 2"
1#
#4660
0#
#4670
b1000 2"
1#
#4680
0#
#4690
b1000 2"
1#
#4700
0#
#4710
b1000 2"
1#
#4720
0#
#4730
b1000 2"
1#
#4740
0#
#4750
b1000 2"
1#
#4760
0#
#4770
b1000 2"
1#
#4780
0#
#4790
b1000 2"
1#
#4800
0#
#4810
b1000 2"
1#
#4820
0#
#4830
b1000 2"
1#
#4840
0#
#4850
b1000 2"
1#
#4860
0#
#4870
b1000 2"
1#
#4880
0#
#4890
b1000 2"
1#
#4900
0#
#4910
b1000 2"
1#
#4920
0#
#4930
b1000 2"
1#
#4940
0#
#4950
b1000 2"
1#
#4960
0#
#4970
b1000 2"
1#
#4980
0#
#4990
b1000 2"
1#
#5000
0#
#5010
b1000 2"
1#
#5020
0#
#5030
b1000 2"
1#
#5040
0#
#5050
b1000 2"
1#
#5060
0#
#5070
b1000 2"
1#
#5080
0#
#5090
b1000 2"
1#
#5100
0#
#5110
b1000 2"
1#
#5120
0#
#5130
b1000 2"
1#
#5140
0#
#5150
b1000 2"
1#
#5160
0#
#5170
b1000 2"
1#
#5180
0#
#5190
b1000 2"
1#
#5200
0#
#5210
b1000 2"
1#
#5220
0#
#5230
b1000 2"
1#
#5240
0#
#5250
b1000 2"
1#
#5260
0#
#5270
b1000 2"
1#
#5280
0#
#5290
b1000 2"
1#
#5300
0#
#5310
b1000 2"
1#
#5320
0#
#5330
b1000 2"
1#
#5340
0#
#5350
b1000 2"
1#
#5360
0#
#5370
b1000 2"
1#
#5380
0#
#5390
b1000 2"
1#
#5400
0#
#5410
b1000 2"
1#
#5420
0#
#5430
b1000 2"
1#
#5440
0#
#5450
b1000 2"
1#
#5460
0#
#5470
b1000 2"
1#
#5480
0#
#5490
b1000 2"
1#
#5500
0#
#5510
b1000 2"
1#
#5520
0#
#5530
b1000 2"
1#
#5540
0#
#5550
b1000 2"
1#
#5560
0#
#5570
b1000 2"
1#
#5580
0#
#5590
b1000 2"
1#
#5600
0#
#5610
b1000 2"
1#
#5620
0#
#5630
b1000 2"
1#
#5640
0#
#5650
b1000 2"
1#
#5660
0#
#5670
b1000 2"
1#
#5680
0#
#5690
b1000 2"
1#
#5700
0#
#5710
b1000 2"
1#
#5720
0#
#5730
b1000 2"
1#
#5740
0#
#5750
b1000 2"
1#
#5760
0#
#5770
b1000 2"
1#
#5780
0#
#5790
b1000 2"
1#
#5800
0#
#5810
b1000 2"
1#
#5820
0#
#5830
b1000 2"
1#
#5840
0#
#5850
b1000 2"
1#
#5860
0#
#5870
b1000 2"
1#
#5880
0#
#5890
b1000 2"
1#
#5900
0#
#5910
b1000 2"
1#
#5920
0#
#5930
b1000 2"
1#
#5940
0#
#5950
b1000 2"
1#
#5960
0#
#5970
b1000 2"
1#
#5980
0#
#5990
b1000 2"
1#
#6000
0#
#6010
b1000 2"
1#
#6020
0#
#6030
b1000 2"
1#
#6040
0#
#6050
b1000 2"
1#
#6060
0#
#6070
b1000 2"
1#
#6080
0#
#6090
b1000 2"
1#
#6100
0#
#6110
b1000 2"
1#
#6120
0#
#6130
b1000 2"
1#
#6140
0#
#6150
b1000 2"
1#
#6160
0&
0=
b101000110000000000000000011000000000000001100000000010000110000010000001000000000000011100000000100000001110000000000111001 ;
b101000110000000000000000011000000000000001100000000010000110000010000001000000000000011100000000100000001110000000000111001 j
b101000110000000000000000011000000000000001100000000010000110000010000001000000000000011100000000100000001110000000000111001 #"
0#
#6170
b1000 2"
1#
#6180
bx !
bx ?
bx H
bx )"
1T
b111001 /
b111001 W
b111001 {
0.
1+
1-
b111 :
b111 v
b111 *"
b1 7
b1 x
b1 +"
b111001 9
b111001 w
b111001 $"
b100 2
b100 M
b100 z
b1000 2"
b100000001110000000000111001 )
b100000001110000000000111001 m
b100000001110000000000111001 u
0l
0#
#6190
b11101 3
b11101 F
b11101 L
b11101 R
b11101 P
b11101 ,
b11101 O
b11101 &"
b11101 !
b11101 ?
b11101 H
b11101 )"
b11101 0
b11101 K
b11101 %"
b11101 *
b11101 G
b11101 \
b11100011 4
b11100011 I
b11100011 4"
b11101 8
b11101 J
b11101 ."
b11101 /"
b11101 3"
b1000 2"
1#
#6200
0T
b111000 /
b111000 W
b111000 {
0.
1+
b0 :
b0 v
b0 *"
b0 7
b0 x
b0 +"
b111000 9
b111000 w
b111000 $"
b100000010000000000000111000 )
b100000010000000000000111000 m
b100000010000000000000111000 u
b1110100000000000000000000000000000011000111010001110100000000 1"
b1000 2"
b1 g
0#
b101 "
b101 %
b101 d
b101 '"
#6210
b0 3
b0 F
b0 L
b0 R
b0 P
b0 ,
b0 O
b0 &"
b11 !
b11 ?
b11 H
b11 )"
b0 0
b0 K
b0 %"
b11 *
b11 G
b11 \
b0 4
b0 I
b0 4"
b0 8
b0 J
b0 ."
b0 /"
b0 3"
b1000 2"
1#
#6220
b1000011 3
b1000011 F
b1000011 L
b1000011 R
b1000011 P
b1000011 !
b1000011 ?
b1000011 H
b1000011 )"
b1000011 ,
b1000011 O
b1000011 &"
0-
1.
0+
b11 :
b11 v
b11 *"
b11 7
b11 x
b11 +"
b1000011 9
b1000011 w
b1000011 $"
b0 2
b0 M
b0 z
b1110100000000000000000000000000000011000111010001110100000011 1"
b1000 2"
b110000000001000011 )
b110000000001000011 m
b110000000001000011 u
b10 g
0#
b110 "
b110 %
b110 d
b110 '"
#6230
b11 0
b11 K
b11 %"
b11 6
b11 N
b11 ,"
b11 0"
b11111101 4
b11111101 I
b11111101 4"
b11 8
b11 J
b11 ."
b11 /"
b11 3"
b1000 2"
1#
#6240
b11 !
b11 ?
b11 H
b11 )"
b11 3
b11 F
b11 L
b11 R
b11 P
b11 ,
b11 O
b11 &"
0Q
0V
0a
b1 S
b1 ^
b11000 /
b11000 W
b11000 {
1(
1-
b0 :
b0 v
b0 *"
b11 9
b11 w
b11 $"
b101 2
b101 M
b101 z
b101000110000000000000000011 )
b101000110000000000000000011 m
b101000110000000000000000011 u
b1110100000000000000000000000001000011000111010001110100000011 1"
b1000 2"
b11 g
0#
b111 "
b111 %
b111 d
b111 '"
#6250
b1000011 !
b1000011 ?
b1000011 H
b1000011 )"
b1000011 3
b1000011 F
b1000011 L
b1000011 R
b1000011 P
b1000011 ,
b1000011 O
b1000011 &"
b1000011 0
b1000011 K
b1000011 %"
b10111101 4
b10111101 I
b10111101 4"
b1000011 8
b1000011 J
b1000011 ."
b1000011 /"
b1000011 3"
b1000 2"
1#
#6260
b1110100000000000000000000000001000011000111010001110101000011 1"
b1000 2"
0#
#6270
x&
1D
b1000011 6
b1000011 N
b1000011 ,"
b1000011 0"
b1000 2"
1A
0C
b1110100000011 @
b1110100000011 Z
b1110100000011 }
1#
#6280
0#
#6290
b1000 2"
1#
#6300
0#
#6310
b1000 2"
1#
#6320
0#
#6330
b1000 2"
1#
#6340
0#
#6350
b1000 2"
1#
#6360
0#
#6370
b1000 2"
1#
#6380
0#
#6390
b1000 2"
1#
#6400
0#
#6410
b1000 2"
1#
#6420
0#
#6430
b1000 2"
1#
#6440
0#
#6450
b1000 2"
1#
#6460
0#
#6470
b1000 2"
1#
#6480
0#
#6490
b1000 2"
1#
#6500
0#
#6510
b1000 2"
1#
#6520
0#
#6530
b1000 2"
1#
#6540
0#
#6550
b1000 2"
1#
#6560
0#
#6570
b1000 2"
1#
#6580
0#
#6590
b1000 2"
1#
#6600
0#
#6610
b1000 2"
1#
#6620
0#
#6630
b1000 2"
1#
#6640
0#
#6650
b1000 2"
1#
#6660
0#
#6670
b1000 2"
1#
#6680
0#
#6690
b1000 2"
1#
#6700
0#
#6710
b1000 2"
1#
#6720
0#
#6730
b1000 2"
1#
#6740
0#
#6750
b1000 2"
1#
#6760
0#
#6770
b1000 2"
1#
#6780
0#
#6790
b1000 2"
1#
#6800
0#
#6810
b1000 2"
1#
#6820
0#
#6830
b1000 2"
1#
#6840
0#
#6850
b1000 2"
1#
#6860
0#
#6870
b1000 2"
1#
#6880
0#
#6890
b1000 2"
1#
#6900
0#
#6910
b1000 2"
1#
#6920
0#
#6930
b1000 2"
1#
#6940
0#
#6950
b1000 2"
1#
#6960
0#
#6970
b1000 2"
1#
#6980
0#
#6990
b1000 2"
1#
#7000
0#
#7010
b1000 2"
1#
#7020
0#
#7030
b1000 2"
1#
#7040
0#
#7050
b1000 2"
1#
#7060
0#
#7070
b1000 2"
1#
#7080
0#
#7090
b1000 2"
1#
#7100
0#
#7110
b1000 2"
1#
#7120
0#
#7130
b1000 2"
1#
#7140
0#
#7150
b1000 2"
1#
#7160
0#
#7170
b1000 2"
1#
#7180
0#
#7190
b1000 2"
1#
#7200
0#
#7210
b1000 2"
1#
#7220
0#
#7230
b1000 2"
1#
#7240
0#
#7250
b1000 2"
1#
#7260
0#
#7270
b1000 2"
1#
#7280
0#
#7290
b1000 2"
1#
#7300
0#
#7310
b1000 2"
1#
#7320
0#
#7330
b1000 2"
1#
#7340
0#
#7350
b1000 2"
1#
#7360
0#
#7370
b1000 2"
1#
#7380
0#
#7390
b1000 2"
1#
#7400
0#
#7410
b1000 2"
1#
#7420
0#
#7430
b1000 2"
1#
#7440
0#
#7450
b1000 2"
1#
#7460
0#
#7470
b1000 2"
1#
#7480
0#
#7490
b1000 2"
1#
#7500
0#
#7510
b1000 2"
1#
#7520
0#
